%YAML 1.1
%TAG !u! tag:unity3d.com,2011:
--- !u!114 &11400000
MonoBehaviour:
  m_ObjectHideFlags: 0
  m_CorrespondingSourceObject: {fileID: 0}
  m_PrefabInstance: {fileID: 0}
  m_PrefabAsset: {fileID: 0}
  m_GameObject: {fileID: 0}
  m_Enabled: 1
  m_EditorHideFlags: 0
  m_Script: {fileID: 11500000, guid: 58c2985a7b6848c4a94b9aeb66fcca7f, type: 3}
  m_Name: GameSettings
  m_EditorClassIdentifier: 
  items:
  - key: seed_cucumber
    nameKey: Cucumber seeds
    descriptionKey: Wants a bottle of water
    price: 10
    sprite: {fileID: 21300000, guid: 6633e1fd7865e1849a15908b206b0c35, type: 3}
  - key: cucumber
    nameKey: Cucumber
    descriptionKey: Very green
    price: 20
    sprite: {fileID: 21300000, guid: 3196711b0fce10c4097f6479d828aab8, type: 3}
  - key: seed_tomato
    nameKey: Tomato seeds
    descriptionKey: Wants a bottle of water
    price: 20
    sprite: {fileID: 21300000, guid: f78cdcdf2058f6b458b960b289fb4d54, type: 3}
  - key: tomato
    nameKey: Tomato
    descriptionKey: Very red
    price: 40
    sprite: {fileID: 21300000, guid: 99b7f4b0009e69d48a4662c2a8cc0b3d, type: 3}
  - key: seed_garlic
    nameKey: Garlic seeds
    descriptionKey: Wants a bottle of water
    price: 40
    sprite: {fileID: 21300000, guid: 3106b03c9d70ab743ae8370b2e064e8e, type: 3}
  - key: garlic
    nameKey: Garlic
    descriptionKey: Very white
    price: 80
    sprite: {fileID: 21300000, guid: 1ce92228388d718458cdda2d9e2a398e, type: 3}
  - key: seed_apple
    nameKey: Apple seeds
    descriptionKey: It would be a tree
    price: 80
    sprite: {fileID: 21300000, guid: bf086afec8a53bd4cb3a3c9411383496, type: 3}
  - key: apple
    nameKey: Apple
    descriptionKey: Very sweet
    price: 160
    sprite: {fileID: 21300000, guid: 7127d5d63369dc94f874ed3d677627e4, type: 3}
  farmReceipts:
  - key: cucumber
    sourceItemKey: seed_cucumber
    resultItemKey: cucumber
    growTimeSeconds: 5
  - key: tomato
    sourceItemKey: seed_tomato
    resultItemKey: tomato
    growTimeSeconds: 10
  - key: garlic
    sourceItemKey: seed_garlic
    resultItemKey: garlic
    growTimeSeconds: 15
  - key: apple
    sourceItemKey: seed_apple
    resultItemKey: apple
    growTimeSeconds: 20
  tutorial:
  - type: 0
    priority: 0
    stages:
    - stage: 0
      messageKey: Hello my dear friend. You are looking at my test project.
      tipKey: Tap anywhere to continue.
      position: 0.1
    - stage: 1
      messageKey: There are 3 building.
      tipKey: 
      position: 0.1
    - stage: 2
      messageKey: Here you can see how much gold you have.
      tipKey: You can get it by selling items.
      position: 0.1
    - stage: 3
      messageKey: This is a shop.
      tipKey: Tap to open it.
      position: 0.1
    - stage: 4
      messageKey: Awesome! Now let's see what a farm is.
      tipKey: Tap to open it.
      position: 0.9
    - stage: 5
      messageKey: And the last one is storage.
      tipKey: Tap to open it.
      position: 0.1
    - stage: 6
      messageKey: Enjoy the game.
      tipKey: 
      position: 0.1
  - type: 1
    priority: 0
    stages:
    - stage: 0
      messageKey: Here you can buy seeds.
      tipKey: 
      position: 0.9
    - stage: 1
      messageKey: This is a timer that show when the shop will refresh.
      tipKey: 
      position: 0.9
    - stage: 2
      messageKey: Select item to buy.
      tipKey: It will be free for the first time.
      position: 0.9
    - stage: 3
      messageKey: Perfect! Now leave this window.
      tipKey: 
      position: 0.9
  - type: 2
    priority: 0
    stages:
    - stage: 0
      messageKey: Here you can grow plants from seeds.
      tipKey: 
      position: 0.1
    - stage: 1
      messageKey: To do this, you need to have the required seed.
      tipKey: 
      position: 0.1
    - stage: 2
      messageKey: Let's grow something.
      tipKey: It will be free for tutorial
      position: 0.9
    - stage: 3
      messageKey: Now we have to wait for it to grow.
      tipKey: 
      position: 0.1
    - stage: 4
      messageKey: Ready. You can collect your loot.
      tipKey: 
      position: 0.1
  - type: 3
    priority: 0
    stages:
    - stage: 0
      messageKey: Here are the items you have.
      tipKey: 
      position: 0.9
    - stage: 1
      messageKey: You can tap on any item and sell it.
      tipKey: 
      position: 0.9
    - stage: 2
      messageKey: Let's do it!
      tipKey: 
      position: 0.9
    - stage: 3
      messageKey: Great! Now go back to the town.
      tipKey: 
      position: 0.9
